…
\#\#\#\#2.Currently dep\_time and sched\_dep\_time are convenient to
look at, but hard to compute with because they’re not really continuous
numbers. Convert them to a more convenient representation of number of
minutes since midnight.

``` r
flights %>% select(dep_time, sched_dep_time, hour, minute) %>%  mutate(
  dep_hour = dep_time %/% 100,
  dep_minute = dep_time %% 100,
  dep_total_minutes = 60*dep_hour + dep_minute,
  sched_dep_total_minutes = 60*hour + minute) %>% select(dep_time, sched_dep_time,dep_total_minutes, sched_dep_total_minutes)
```

    ## # A tibble: 336,776 x 4
    ##    dep_time sched_dep_time dep_total_minutes sched_dep_total_minutes
    ##       <int>          <int>             <dbl>                   <dbl>
    ##  1      517            515               317                     315
    ##  2      533            529               333                     329
    ##  3      542            540               342                     340
    ##  4      544            545               344                     345
    ##  5      554            600               354                     360
    ##  6      554            558               354                     358
    ##  7      555            600               355                     360
    ##  8      557            600               357                     360
    ##  9      557            600               357                     360
    ## 10      558            600               358                     360
    ## # … with 336,766 more rows
…
